{
  "name": "@kaiko.io/rescript-prelude",
  "sources": [
    {
      "dir": "src",
      "subdirs": true
    }
  ],
  "suffix": ".js",
  "package-specs": [
    {
      "module": "esmodule"
    },
    {
      "module": "commonjs"
    }
  ]
}
